{
  "consumer": {
    "name": "Zoo Consumer"
  },
  "provider": {
    "name": "Zoo Provider"
  },
  "messages": [
    {
      "description": "an alligator message",
      "providerStates": [
        {
          "name": "there is an alligator named Mary",
          "params": {
          }
        }
      ],
      "contents": {
        "name": "Mary"
      },
      "matchingRules": {
      },
      "metaData": {
        "type": "animal"
      }
    }
  ],
  "metadata": {
    "pactSpecification": {
      "version": "2.0.0"
    }
  }
}